<?xml version="1.0" encoding="UTF-8" standalone="no"?>
<svg viewBox="0 0 531.49603 708.66144" xmlns="http://www.w3.org/2000/svg">
<defs>
<linearGradient gradientUnits="userSpaceOnUse" id="linearGradient3708" x2="0" y1="90.15625" y2="-247.40625">
<stop offset="0" stop-color="#fff"/>
<stop offset="1" stop-color="#fff" stop-opacity="0"/>
</linearGradient>
<radialGradient cx="-971.18964" cy="-450.32495" fx="-974.18964" fy="-451.07388" gradientTransform="matrix(1,0,0,1.33526,0,65.3404)" gradientUnits="userSpaceOnUse" id="radialGradient3695" r="262.91968">
<stop offset="0" stop-color="#fff"/>
<stop offset="1" stop-color="#fff" stop-opacity=".40698"/>
</radialGradient>
</defs>
<g transform="translate(1491.4286,547.63782)">
<path d="m-1471.4286-547.63782h491.49603a20,20 0 0,1 20,20v668.66144a20,20 0 0,1 -20,20h-491.49603a20,20 0 0,1 -20-20v-668.66144a20,20 0 0,1 20-20" fill="#212121"/>
<path d="m-1471.2916-545.95308c-6.6316.334-12.3781,3.89822-15.7374,9.14397 3.1085-2.00597 6.8021-3.1724 10.7923-3.1724h489.17027c11.02749,0 19.90521,8.87772 19.90521,19.9052v665.48684c0,3.98068-1.17525,7.6573-3.17239,10.76126 5.4976-3.53496 9.14395-9.68387 9.14395-16.73282v-665.48684c0-11.02748-8.87772-19.90521-19.90521-19.90521h-489.17033c-.3445,0-.6861-.0171-1.0264,0z" fill="url(#radialGradient3695)" opacity=".41085"/>
<path d="m-1369.1294-476.77167h286.8976c8.864,0 16,7.136 16,16 0,0 35,158.73966 35,267.46457s-35,267.46458-35,267.46458c0,8.864-7.136,16-16,16h-286.8976c-8.864,0-16-7.136-16-16 0,0-35-158.73966-35-267.46458s35-267.46457 35-267.46457c0-8.864 7.136-16 16-16z"/>
<path d="m-1369.1294-342.48596h286.8976c8.864,0 11.9594,3.67797 16,12.21016 0,0 27,55.93692 27,135.49508s-27,272.72804-27,272.72804c0,6.76443-7.136,12.21016-16,12.21016h-286.8976c-8.864,0-16-5.44573-16-12.21016 0,0-27-193.16988-27-272.72804s27-135.49508 27-135.49508c0-6.76442 7.136-12.21016 16-12.21016z" fill="#3c3c3c"/>
<path d="m-1168.5714-19.06639c0,23.66935-18.5482,42.85714-41.4286,42.85714s-41.4286-19.1878-41.4286-42.85714 18.5482-42.85714 41.4286-42.85714 41.4286,19.1878 41.4286,42.85714z" fill="none" stroke="#fff" stroke-width="10" transform="matrix(1.96165,0,0,1.96165,1147.9199,14.33526)"/>
<path d="m-1235.4806-320.20926h19.6v125.71429h-19.6z" fill="#fff"/>
<path d="m-1371.7143-474.78067h290.8572c6.5105,0 11.4286,4.93146 11.4286,11.42857l-6,107.14286c0,6.24859-5.1867,11.42857-11.4286,11.42857h-278.8572c-6.2419,0-11.4285-5.17998-11.4285-11.42857l-6-107.14286c0-6.49711 4.918-11.42857 11.4285-11.42857z" fill="#fff" opacity=".142"/>
<path d="m-303.88954-455.19838c-1.62471,37.08596-2.9052,70.91196-4.44025,108.00544 .40711,2.60223.42384,2.92959 1.82938,4.28571 7.47716,8.62091 13.98054,26.16771 17.46916,41.46968 .005.022.0262.0405.0312.0625 .006.0191-.006.0434 0,.0625 17.86705,55.23179 18.44558,113.95871 12.875,170.96875-.00085.0103.00085.0209 0,.0312-3.62095,43.91877-8.61344,87.69319-14,131.40625 11.76765-66.0023 20.80269-132.49981 21.125-199.46875-.001-.0674-.001-.0778 0-.0312-1.93943-87.50755-16.45541-171.01493-33.80047-256.76214-.15271-.86615-1.02945-.76207-1.08902-.0299z" fill="#cccccf" transform="translate(-764.14285)"/>
<path d="m-1045.0938-179.40625c-136.8251,0-262.7571,22.68605-362.8124,60.75 7.5919,87.90364 22.7812,196.59375 22.7812,196.59375 0,6.76443 7.136,12.21875 16,12.21875h286.9062c8.8641,0 16-5.45432 16-12.21875 0,0 23.8728-170.78588 26.7188-257.3125-1.8664-.008-3.7233-.0312-5.5938-.0312z" fill="url(#linearGradient3708)" opacity=".27907"/>
</g>
</svg>
