<?xml version="1.0"?><svg width="531.49603" height="708.66144" xmlns="http://www.w3.org/2000/svg" xmlns:xlink="http://www.w3.org/1999/xlink">
 <defs>
  <linearGradient id="linearGradient3702">
   <stop stop-color="#ffffff" id="stop3704" offset="0"/>
   <stop stop-color="#ffffff" stop-opacity="0" id="stop3706" offset="1"/>
  </linearGradient>
  <linearGradient id="linearGradient3689">
   <stop stop-color="#ffffff" id="stop3691" offset="0"/>
   <stop stop-color="#ffffff" stop-opacity="0.406977" id="stop3693" offset="1"/>
  </linearGradient>
  <radialGradient gradientUnits="userSpaceOnUse" gradientTransform="matrix(1, 0, 0, 1.33526, 1492.43, 612.979)" r="262.91968" fy="-451.07388" fx="-974.18964" cy="-450.32495" cx="-971.18964" id="radialGradient3695" xlink:href="#linearGradient3689"/>
  <linearGradient y2="-0.252261" x2="0.500005" y1="1" x1="0.500005" id="linearGradient3708" xlink:href="#linearGradient3702"/>
  <linearGradient y1="0" x1="0.484375" y2="1" x2="0.476563" id="svg_9">
   <stop offset="0" stop-opacity="0.996094" stop-color="#707070"/>
   <stop offset="1" stop-opacity="0.984375" stop-color="#4f4e4e"/>
  </linearGradient>
 </defs>
 <metadata id="metadata7">image/svg+xml</metadata>
 <g>
  <title>Layer 1</title>
  <g transform="rotate(-180, 266.748, 354.331)" id="layer1">
   <rect fill="#212121" fill-rule="nonzero" stroke-width="10" ry="19.999998" y="0.000822" x="1.001422" height="708.66144" width="531.49603" id="rect2816"/>
   <path opacity="0.410853" fill="url(#radialGradient3695)" fill-rule="nonzero" stroke-width="10" id="rect3684" d="m21.138395,1.685578c-6.631591,0.333984 -12.378052,3.898254 -15.737426,9.143982c3.10852,-2.005981 6.802125,-3.172424 10.79236,-3.172424l489.170227,0c11.027435,0 19.905182,8.877748 19.905182,19.905213l0,665.486845c0,3.980652 -1.175232,7.657288 -3.172424,10.761292c5.49762,-3.534973 9.143982,-9.683899 9.143982,-16.732849l0,-665.486845c0,-11.027467 -8.877747,-19.905213 -19.905182,-19.905213l-489.170351,0c-0.344482,0 -0.686035,-0.01709 -1.026367,0z"/>
   <path fill="#000000" fill-rule="nonzero" stroke-width="10" id="rect2818" d="m123.300629,70.866974l286.897583,0c8.864014,0 16,7.135986 16,16c0,0 35,158.739655 35,267.464569c0,108.724915 -35,267.4646 -35,267.4646c0,8.864014 -7.135986,16 -16,16l-286.897583,0c-8.864014,0 -16,-7.135986 -16,-16c0,0 -35,-158.739716 -35,-267.4646c0,-108.724915 35,-267.464569 35,-267.464569c0,-8.864014 7.135986,-16 16,-16z"/>
   <path fill="#3c3c3c" fill-rule="nonzero" stroke-width="10" d="m123.300629,205.152679l286.897583,0c8.864014,0 11.959473,3.677979 16,12.210175c0,0 27,55.93692 27,135.495087c0,79.558136 -27,272.728058 -27,272.728058c0,6.764404 -7.135986,12.210144 -16,12.210144l-286.897583,0c-8.864014,0 -16,-5.44574 -16,-12.210144c0,0 -27,-193.169922 -27,-272.728058c0,-79.558167 27,-135.495087 27,-135.495087c0,-6.764435 7.135986,-12.210175 16,-12.210175z" id="path2821"/>
   <path fill="none" stroke="#ffffff" stroke-width="10" d="m348.021912,524.572388c0,46.430969 -36.385101,84.070679 -81.268372,84.070679c-44.883301,0 -81.268402,-37.639709 -81.268402,-84.070679c0,-46.43103 36.385101,-84.07074 81.268402,-84.07074c44.88327,0 81.268372,37.639709 81.268372,84.07074z" id="path2825"/>
   <rect fill="#ffffff" stroke-width="10" y="227.429382" x="256.949422" height="125.71429" width="19.6" id="rect2827"/>
   <path opacity="0.142" fill="#ffffff" fill-rule="nonzero" stroke-width="10" id="rect2829" d="m120.715668,72.857971l290.857178,0c6.510498,0 11.428589,4.931458 11.428589,11.428558l-6,107.142883c0,6.248566 -5.186646,11.428558 -11.428589,11.428558l-278.857178,0c-6.241943,0 -11.428467,-5.179993 -11.428467,-11.428558l-6,-107.142883c0,-6.497101 4.917969,-11.428558 11.428467,-11.428558z"/>
   <path fill="#cccccf" fill-rule="nonzero" stroke-width="10" id="path3679" d="m424.397003,92.440643c-1.624023,37.085999 -2.905029,70.911987 -4.439941,108.005005c0.406982,2.60199 0.42395,2.929993 1.829956,4.28598c7.476929,8.621002 13.97998,26.167023 17.468994,41.469025c0.005005,0.022003 0.026001,0.040985 0.031006,0.062988c0.005981,0.019012 -0.005981,0.042999 0,0.062012c17.867065,55.231995 18.446045,113.958984 12.875,170.968994c-0.000977,0.01001 0.000977,0.020996 0,0.031006c-3.620972,43.919189 -8.613037,87.693604 -14,131.406647c11.767944,-66.00235 20.802979,-132.499664 21.125,-199.468658c-0.000977,-0.067993 -0.000977,-0.078003 0,-0.031006c-1.938965,-87.507996 -16.454956,-171.014984 -33.801025,-256.761993c-0.151978,-0.867004 -1.028931,-0.763 -1.088989,-0.029999l0,0z"/>
   <path opacity="0.27907" fill="url(#linearGradient3708)" fill-rule="nonzero" stroke-width="10" id="path3697" d="m447.340057,368.232635c-136.830078,0 -262.76001,22.686005 -362.820068,60.75c7.599976,87.903412 22.790039,196.593536 22.790039,196.593536c0,6.764404 7.130005,12.218689 16,12.218689l286.900024,0c8.869995,0 16,-5.454285 16,-12.218689c0,0 23.869995,-170.785919 26.719971,-257.312531c-1.869995,-0.007996 -3.719971,-0.031006 -5.589966,-0.031006l0,0z"/>
  </g>
  <rect id="svg_1" height="201" width="211" y="85.338562" x="159.747986" stroke-width="0" stroke="#666666" fill="url(#svg_9)"/>
  <circle id="svg_14" r="75" cy="412.338562" cx="265.747986" stroke-width="0" stroke="#666666" fill="#ffffff"/>
  <circle id="svg_11" r="55" cy="412.338562" cx="265.747986" stroke-width="0" stroke="#666666" fill="#3d3d3d"/>
  <rect id="svg_15" height="126.000001" width="21.000001" y="122.338644" x="255.747682" stroke-width="0" stroke="#666666" fill="#ffffff"/>
  <rect id="svg_18" height="0" width="1" y="520.338562" x="-57.252014" stroke-width="0" stroke="#666666" fill="#4c4c4c"/>
 </g>
</svg>